…
``` r
clpop <- csapAIH::popbr2000_2021(2021, munic = "430520")
```

Com o pacote brpop, teríamos de acrescentar o filtro de exclusão da
categoria “Total” na faixa etária e os resultados seriam os mesmos,
porém com outra estrutura do objeto e outros rótulos de categorias:

``` r
clpop %>% 
  group_by(fxetar5, sexo) %>% 
  summarise(sum(pop))
`summarise()` has grouped output by 'fxetar5'. You can override using the
`.groups` argument.
# A tibble: 34 × 3
# Groups:   fxetar5 [17]
   fxetar5 sexo  `sum(pop)`
   <fct>   <fct>      <int>
 1 0-4     masc         390
 2 0-4     fem          372
 3 5-9     masc         417
 4 5-9     fem          344
 5 10-14   masc         434
 6 10-14   fem          370
 7 15-19   masc         493
 8 15-19   fem          431
 9 20-24   masc         552
10 20-24   fem          503
# ℹ 24 more rows
brpop::mun_sex_pop() %>% 
  filter(mun == "430520", year == 2021, age_group != "Total") %>% 
  group_by(age_group, sex) %>% 
  summarise(sum(pop))
`summarise()` has grouped output by 'age_group'. You can override using the
`.groups` argument.
# A tibble: 34 × 3
# Groups:   age_group [17]
   age_group           sex    `sum(pop)`
   <chr>               <chr>       <int>
 1 From 0 to 4 years   Female        372
 2 From 0 to 4 years   Male          390
 3 From 10 to 14 years Female        344
 4 From 10 to 14 years Male          417
 5 From 15 to 19 years Female        370
 6 From 15 to 19 years Male          434
 7 From 20 to 24 years Female        431
 8 From 20 to 24 years Male          493
 9 From 25 to 29 years Female        503
10 From 25 to 29 years Male          552
# ℹ 24 more rows
```
…
