População dos municípios brasileiros, 2000-2021 — popbr2000_2021 • csapAIH
…
  summarise(pop = sum(pop))
#> # A tibble: 4 × 2
#>     ano    pop
#>   <dbl>  <int>
#> 1  2000 582172
#> 2  2001 600611
#> 3  2002 619261
#> 4  2003 637959
# Anos 2014 a 2016, Cerro Largo, RS:
popbr2000_2021(2014, 2016, munic = "430520") %>%
  group_by(sexo, fxetar5) %>%
  summarise(pop = sum(pop))
#> `summarise()` has grouped output by 'sexo'. You can override using the
#> `.groups` argument.
#> # A tibble: 34 × 3
#> # Groups:   sexo [2]
#>    sexo  fxetar5   pop
#>    <fct> <fct>   <int>
#>  1 masc  0-4      1216
#>  2 masc  5-9      1295
#>  3 masc  10-14    1338
#>  4 masc  15-19    1512
#>  5 masc  20-24    1597
#>  6 masc  25-29    1719
#>  7 masc  30-34    1616
#>  8 masc  35-39    1497
#>  9 masc  40-44    1421
#> 10 masc  45-49    1470
#> # ℹ 24 more rows
…
